{
	"agcgw":{
		"backurl":"connect-dra.dbankcloud.cn",
		"url":"connect-dra.hispace.hicloud.com"
	},
	"client":{
		"cp_id":"2640091000002004177",
		"product_id":"736430079244561501",
		"client_id":"405551269487313920",
		"client_secret":"C4306AF6D575AA306BEBAC547BAAB5DDADD3962E53956A62860233BE7DB3E966",
		"app_id":"102551811",
		"package_name":"com.huawei.retail",
		"api_key":"CgB6e3x93CvvnS+87BB89GeYFE5eED4bqPBg/EO2Gqqh0SbM8WcHSeU7s885ev6TShnyS7sUJSPf6UUEhvNNc06W"
	},
	"service":{
		"analytics":{
			"collector_url":"datacollector-dra.dt.hicloud.com,datacollector-dra.dt.dbankcloud.cn",
			"resource_id":"p1",
			"channel_id":""
		},
		"cloudstorage":{
			"storage_url":"https://agc-storage-dra.platform.dbankcloud.cn"
		},
		"ml":{
			"mlservice_url":"ml-api-dra.ai.dbankcloud.com,ml-api-dra.ai.dbankcloud.cn"
		}
	},
	"region":"SG",
	"configuration_version":"1.0"
}